%YAML 1.1
%TAG !u! tag:unity3d.com,2011:
--- !u!1045 &1
EditorBuildSettings:
  m_ObjectHideFlags: 0
  serializedVersion: 2
  m_Scenes:
  - enabled: 1
    path: Assets/Scenes/0StartScene.unity
    guid: 59708d9d0b0cd7443b4dd7868567312b
  - enabled: 1
    path: Assets/Scenes/1GameScene.unity
    guid: 2cda990e2423bbf4892e6590ba056729
  - enabled: 1
    path: Assets/Scenes/2FinalScene.unity
    guid: 630b5b683fe9a4a42b9becd793a74fde
  m_configObjects: {}
